Louise E. Sinks - Credit Card Fraud: A Tidymodels Tutorial
…
I’m setting a global theme for my figures. I’m using cowplot to create some composite figures, and apparently you must choose a cowplot theme if you set a global theme. You can use a ggtheme on a graph by graph basis, but not globally.

# Code Block 3: setting global figure options

theme_set(theme_cowplot(12))

Loading the data. This is a local copy that is part of the workspace download from Datacamp.

# Code Block 4: Reading in the data
fraud <- read_csv('datacamp_workspace/credit_card_fraud.csv', show_col_types = FALSE) 
fraud

# A tibble: 339,607 × 15
   trans_date_trans_time merchant        category    amt city  state   lat  long
   <dttm>                <chr>           <chr>     <dbl> <chr> <chr> <dbl> <dbl>
 1 2019-01-01 00:00:44   Heller, Gutman… grocery… 107.   Orie… WA     48.9 -118.
 2 2019-01-01 00:00:51   Lind-Buckridge  enterta… 220.   Mala… ID     42.2 -112.
 3 2019-01-01 00:07:27   Kiehn Inc       grocery…  96.3  Gren… CA     41.6 -123.
 4 2019-01-01 00:09:03   Beier-Hyatt     shoppin…   7.77 High… NM     32.9 -106.
 5 2019-01-01 00:21:32   Bruen-Yost      misc_pos   6.85 Free… WY     43.0 -111.
 6 2019-01-01 00:22:06   Kunze Inc       grocery…  90.2  Hono… HI     20.1 -155.
 7 2019-01-01 00:22:18   Nitzsche, Kess… shoppin…   4.02 Vale… NE     42.8 -101.
 8 2019-01-01 00:22:36   Kihn, Abernath… shoppin…   3.66 West… OR     43.8 -122.
 9 2019-01-01 00:31:51   Ledner-Pfanner… gas_tra… 102.   Thom… UT     39.0 -110.
10 2019-01-01 00:34:10   Stracke-Lemke   grocery…  83.1  Conw… WA     48.3 -122.
# ℹ 339,597 more rows
# ℹ 7 more variables: city_pop <dbl>, job <chr>, dob <date>, trans_num <chr>,
#   merch_lat <dbl>, merch_long <dbl>, is_fraud <dbl>
…
i 16 of 16 resampling: down_logreg

✔ 16 of 16 resampling: down_logreg (2.7s)

7.7. Evaluating the models

I viewed the results of the fitting as both a table and graphically using autoplot(). The default autoplot legend is unclear, so you’ll want to do both, as I did. The legend doesn’t label by recipe (only that a recipe was used for preprocessing) and folds related categories into one. Here you see that elastic net logistic regression and logistic regression are both labeled log_reg.

The object we have now, tune_results, is incredibly large and complicated. Using View() on it has crashed RStudio for me. This object should be interacted with through helper functions. For more information about this, please see my other tutorial on tidymodels.

#|label: rank-results-table
# Code Block 35
rank_results(tune_results, rank_metric = "j_index")

# A tibble: 280 × 9
   wflow_id       .config   .metric  mean std_err     n preprocessor model  rank
   <chr>          <chr>     <chr>   <dbl>   <dbl> <int> <chr>        <chr> <int>
 1 down_lightgmb  Preproce… accura… 0.957 0.00240     3 recipe       boos…     1
 2 down_lightgmb  Preproce… j_index 0.915 0.00483     3 recipe       boos…     1
 3 down_lightgmb  Preproce… roc_auc 0.992 0.00100     3 recipe       boos…     1
 4 down_lightgmb  Preproce… sensit… 0.959 0.00407     3 recipe       boos…     1
 5 down_lightgmb  Preproce… specif… 0.956 0.00241     3 recipe       boos…     1
 6 smote_lightgmb Preproce… accura… 0.967 0.00170     3 recipe       boos…     2
 7 smote_lightgmb Preproce… j_index 0.915 0.00310     3 recipe       boos…     2
 8 smote_lightgmb Preproce… roc_auc 0.990 0.00102     3 recipe       boos…     2
 9 smote_lightgmb Preproce… sensit… 0.948 0.00399     3 recipe       boos…     2
10 smote_lightgmb Preproce… specif… 0.967 0.00172     3 recipe       boos…     2
# ℹ 270 more rows
…
