Louise E. Sinks - A Tidymodels Tutorial: A Structural Approach
…
Degrees of Freedom: 254704 Total (i.e. Null);  254684 Residual
Null Deviance:      16570 
Residual Deviance: 11910    AIC: 11950

While you can use standard R operations for interacting with lists and nested data to extract the desired information from wflow_fit, it is much easier to use the broom package. Broom is part of the core tidymodels installation, so it does not need to be installed separately. To get the model coefficients and p-values in tibble form, use tidy(). For high-level statistics about the model, use glance(). Just remember that the information you extract from the output of fit() relates to the model as applied to the training data. For information about the model performance as applied to the test data, you need to use the output of predict(). Since this output is only a vector of predictions, you need to bind it to the test dataframe and then perform analysis on the new object.

So it is pretty straightforward to get our model coefficients:

# Code block 13: Summarize wflow_fit with tidy
wflow_fit %>% tidy() #summarizes information about model components

# A tibble: 21 × 5
   term                   estimate std.error statistic   p.value
   <chr>                     <dbl>     <dbl>     <dbl>     <dbl>
 1 (Intercept)             7.07       0.0703   101.    0        
 2 lat_trans              -0.102      0.0305    -3.36  7.94e-  4
 3 long_trans             -0.0141     0.0306    -0.462 6.44e-  1
 4 distance_miles          0.0653     0.0318     2.05  4.02e-  2
 5 age                    -0.268      0.0289    -9.27  1.87e- 20
 6 hour                   -0.828      0.0397   -20.9   1.27e- 96
 7 weekday                -0.127      0.0288    -4.41  1.03e-  5
 8 amt_log                -1.87       0.0510   -36.7   2.76e-294
 9 category_food_dining   -0.00929    0.0599    -0.155 8.77e-  1
10 category_gas_transport -0.628      0.0593   -10.6   3.62e- 26
# ℹ 11 more rows
…
# A tibble: 6 × 4
  .pred_class  .row is_fraud .config             
  <fct>       <int> <fct>    <chr>               
1 0               1 0        Preprocessor1_Model1
2 0               2 0        Preprocessor1_Model1
3 0               8 0        Preprocessor1_Model1
4 0              12 0        Preprocessor1_Model1
5 0              13 0        Preprocessor1_Model1
6 0              14 0        Preprocessor1_Model1

last_fit_results %>% collect_predictions()

# A tibble: 84,902 × 5
   id               .pred_class  .row is_fraud .config             
   <chr>            <fct>       <int> <fct>    <chr>               
 1 train/test split 0               1 0        Preprocessor1_Model1
 2 train/test split 0               2 0        Preprocessor1_Model1
 3 train/test split 0               8 0        Preprocessor1_Model1
 4 train/test split 0              12 0        Preprocessor1_Model1
 5 train/test split 0              13 0        Preprocessor1_Model1
 6 train/test split 0              14 0        Preprocessor1_Model1
 7 train/test split 0              16 0        Preprocessor1_Model1
 8 train/test split 0              17 0        Preprocessor1_Model1
 9 train/test split 0              19 0        Preprocessor1_Model1
10 train/test split 0              25 0        Preprocessor1_Model1
# ℹ 84,892 more rows
…
# Code block 22: collecting metrics from lastfit collect_metrics()
last_fit_results %>% collect_metrics()

# A tibble: 1 × 4
  .metric  .estimator .estimate .config             
  <chr>    <chr>          <dbl> <chr>               
1 accuracy binary         0.995 Preprocessor1_Model1

And extract the fit. This extract_fit_parsnip() result is an identical parsnip object as the workflow_fit object we got from fit() and can be handled the same way (i.e. via broom). You can refer back to Code Block 13 to see the results are the same. This is perhaps the key takeaway; these larger, more complex objects contain the simpler objects (workflows, parsnip objects) and they should be extracted and handled normally. Understanding this will make understanding how to handle a workflow_set() much easier.

# Code block 23: extract model coefficients from last_fit() 
last_fit_results %>% extract_fit_parsnip() %>% tidy()

# A tibble: 21 × 5
   term                   estimate std.error statistic   p.value
   <chr>                     <dbl>     <dbl>     <dbl>     <dbl>
 1 (Intercept)             7.07       0.0703   101.    0        
 2 lat_trans              -0.102      0.0305    -3.36  7.94e-  4
 3 long_trans             -0.0141     0.0306    -0.462 6.44e-  1
 4 distance_miles          0.0653     0.0318     2.05  4.02e-  2
 5 age                    -0.268      0.0289    -9.27  1.87e- 20
 6 hour                   -0.828      0.0397   -20.9   1.27e- 96
 7 weekday                -0.127      0.0288    -4.41  1.03e-  5
 8 amt_log                -1.87       0.0510   -36.7   2.76e-294
 9 category_food_dining   -0.00929    0.0599    -0.155 8.77e-  1
10 category_gas_transport -0.628      0.0593   -10.6   3.62e- 26
# ℹ 11 more rows
…
[1] "Total Time for this Set: "

end_time - start_time

Time difference of 3.124082 mins

Now we have another complex object. Displaying this object may or may not work. It has never worked for me and I lost a lot of time figuring that out. I followed a tutorial from Julia Silge did call that object, and it took me a long time to figure out my code was not timing out/locking up from the fitting, but rather from displaying that object.

So we are going to interact via helper functions. I’m using the other metric set I created back in Code Block 7 . Accuracy is generally a terrible metric for highly imbalanced problems; the model can achieve high accuracy by assigning everything to the majority class. Alternate metrics like sensitivity or j-index are better choices for the imbalanced class situation.

# Code Block 25: table of ranked results
rank_results(tune_results, rank_metric = "j_index")

# A tibble: 70 × 9
   wflow_id    .config      .metric  mean std_err     n preprocessor model  rank
   <chr>       <chr>        <chr>   <dbl>   <dbl> <int> <chr>        <chr> <int>
 1 down_logreg Preprocesso… accura… 0.749 0.0112      3 recipe       logi…     1
 2 down_logreg Preprocesso… j_index 0.503 0.0102      3 recipe       logi…     1
 3 down_logreg Preprocesso… roc_auc 0.852 0.00742     3 recipe       logi…     1
 4 down_logreg Preprocesso… sensit… 0.754 0.0207      3 recipe       logi…     1
 5 down_logreg Preprocesso… specif… 0.749 0.0114      3 recipe       logi…     1
 6 down_glmnet Preprocesso… accura… 0.750 0.0113      3 recipe       logi…     2
 7 down_glmnet Preprocesso… j_index 0.502 0.00986     3 recipe       logi…     2
 8 down_glmnet Preprocesso… roc_auc 0.852 0.00771     3 recipe       logi…     2
 9 down_glmnet Preprocesso… sensit… 0.753 0.0207      3 recipe       logi…     2
10 down_glmnet Preprocesso… specif… 0.750 0.0115      3 recipe       logi…     2
# ℹ 60 more rows
…
