Louise E. Sinks - An Introduction to Web Scraping Using rvest
…
rev_war_test <- rev_war_test %>%
  select(name_unclean, first_name, V1, V2, V3, suffix, url, SAR_ID)

rev_war_test <- rev_war_test %>%
  mutate(V2 = ifelse(is.na(V2), "", V2),
         V3 = ifelse(is.na(V3), "", V3),
         V1 = str_to_title(V1),
         V2 = str_to_title(V2),
         V3 = str_to_title(V3)
         )

rev_war_test

# A tibble: 74 × 8
   name_unclean                 first_name V1    V2    V3    suffix url   SAR_ID
   <chr>                        <chr>      <chr> <chr> <chr> <chr>  <chr> <chr> 
 1 "    John  PHELPS  "         John       Phel… ""    ""    ""     http… P-335…
 2 "    Moses   ALLEN  "        Moses      Allen ""    ""    ""     http… P-102…
 3 "    William  HARRELL/HORRA… William    Harr… "Hor… ""    "Jr"   http… P-185…
 4 "    Aaron   VAN CLEVE/VAN … Aaron      Van … "Van… ""    ""     http… P-310…
 5 "    William   VAN CLEVE/VA… William    Van … "Van… ""    ""     http… P-309…
 6 "    Richard   VEATCH/VEETC… Richard    Veat… "Vee… ""    ""     http… P-310…
 7 "    Daniel   CHAPMAN  "     Daniel     Chap… ""    ""    ""     http… P-131…
 8 "    William  HORRALL Sr "   William    Horr… ""    ""    "Sr"   http… P-335…
 9 "    William   BALDWIN  "    William    Bald… ""    ""    ""     http… P-107…
10 "    John  GOODALL/GOODALE … John       Good… "Goo… ""    ""     http… P-167…
# ℹ 64 more rows
…
