Louise E. Sinks - Credit Card Fraud: A Tidymodels Tutorial
…
I can make an identifier that includes as much customer data as possible (date of birth, city, state, and job),

Assume that a customer in this dataset can be uniquely identified by date of birth and job

Four locations have 2 users, the rest only have one.

temp <-
  fraud %>% 
  select(lat, long, dob, job, city, state) %>% 
  group_by(lat, long, dob, job, city) %>% 
  distinct()    

temp %>% group_by(lat, long) %>% count(sort = TRUE)

# A tibble: 183 × 3
# Groups:   lat, long [183]
     lat  long     n
   <dbl> <dbl> <int>
 1  33.0 -117.     2
 2  34.2 -118.     2
 3  37.3 -122.     2
 4  43.0 -109.     2
 5  20.0 -155.     1
 6  20.1 -155.     1
 7  32.3 -104.     1
 8  32.7 -117.     1
 9  32.9 -106.     1
10  33.3 -111.     1
# ℹ 173 more rows

temp %>% group_by(dob) %>% count(sort = TRUE)

# A tibble: 187 × 2
# Groups:   dob [187]
   dob            n
   <date>     <int>
 1 1927-09-09     1
 2 1928-04-02     1
 3 1928-10-01     1
 4 1929-04-07     1
 5 1929-05-06     1
 6 1932-03-10     1
 7 1932-08-10     1
 8 1935-01-29     1
 9 1935-02-10     1
10 1936-05-01     1
# ℹ 177 more rows

Get unique DOBs and associated coordinates. I’m creating a “ID”, which is just the row number. I want to color some of my graphs by person, and using dob sometimes created odd scales, likely because it is a date.

unique_dobs<- fraud %>% group_by(dob, lat, long) %>% count(sort = TRUE)
unique_dobs <- tibble::rowid_to_column(unique_dobs, "ID")
unique_dobs

# A tibble: 187 × 5
# Groups:   dob, lat, long [187]
      ID dob          lat   long     n
   <int> <date>     <dbl>  <dbl> <int>
 1     1 1987-04-23  39.0 -110.   4386
 2     2 1987-10-28  33.3 -111.   4383
 3     3 1984-09-01  48.3 -122.   4381
 4     4 1989-07-17  38.8  -93.9  4380
 5     5 1988-10-26  38.3  -92.7  4379
 6     6 1972-09-22  33.7 -117.   4378
 7     7 1982-02-11  41.2 -101.   4378
 8     8 1975-07-31  39.6 -105.   4375
 9     9 1971-04-25  34.4 -119.   4374
10    10 1981-10-24  33.6 -112.   4366
# ℹ 177 more rows
…
Get the states data. I’m going to filter by states later on, so having this in here helps.

states <- fraud %>% select(dob, lat, long, state) %>% distinct()

now join

unique_dobs<- unique_dobs %>%
  left_join(states)

Joining with `by = join_by(dob, lat, long)`

unique_dobs

# A tibble: 187 × 6
# Groups:   dob, lat, long [187]
      ID dob          lat   long     n state
   <int> <date>     <dbl>  <dbl> <int> <chr>
 1     1 1987-04-23  39.0 -110.   4386 UT   
 2     2 1987-10-28  33.3 -111.   4383 AZ   
 3     3 1984-09-01  48.3 -122.   4381 WA   
 4     4 1989-07-17  38.8  -93.9  4380 MO   
 5     5 1988-10-26  38.3  -92.7  4379 MO   
 6     6 1972-09-22  33.7 -117.   4378 CA   
 7     7 1982-02-11  41.2 -101.   4378 NE   
 8     8 1975-07-31  39.6 -105.   4375 CO   
 9     9 1971-04-25  34.4 -119.   4374 CA   
10    10 1981-10-24  33.6 -112.   4366 AZ   
# ℹ 177 more rows
…
A million unique merchants

On the other hand, every transaction is associated with a unique merchant location. This isn’t particularly realistic, and makes visualizing the date more difficult.

Not only are there no duplicate merchant locations for specific users…

fraud %>%
  group_by(dob, lat, long, merch_lat, merch_long) %>%
  count(sort= TRUE)

# A tibble: 339,607 × 6
# Groups:   dob, lat, long, merch_lat, merch_long [339,607]
   dob          lat  long merch_lat merch_long     n
   <date>     <dbl> <dbl>     <dbl>      <dbl> <int>
 1 1927-09-09  37.8 -119.      36.8      -118.     1
 2 1927-09-09  37.8 -119.      36.8      -120.     1
 3 1927-09-09  37.8 -119.      36.8      -120.     1
 4 1927-09-09  37.8 -119.      36.8      -120.     1
 5 1927-09-09  37.8 -119.      36.8      -119.     1
 6 1927-09-09  37.8 -119.      36.8      -119.     1
 7 1927-09-09  37.8 -119.      36.8      -118.     1
 8 1927-09-09  37.8 -119.      36.8      -118.     1
 9 1927-09-09  37.8 -119.      36.8      -120.     1
10 1927-09-09  37.8 -119.      36.8      -120.     1
# ℹ 339,597 more rows

But there are no duplicate merchant locations over the entire dataset.

fraud %>%
  group_by(merch_lat, merch_long) %>%
  count(sort= TRUE)

# A tibble: 339,607 × 3
# Groups:   merch_lat, merch_long [339,607]
   merch_lat merch_long     n
       <dbl>      <dbl> <int>
 1      19.0      -156.     1
 2      19.0      -155.     1
 3      19.0      -155.     1
 4      19.0      -155.     1
 5      19.0      -156.     1
 6      19.0      -156.     1
 7      19.0      -155.     1
 8      19.0      -156.     1
 9      19.0      -155.     1
10      19.0      -156.     1
# ℹ 339,597 more rows
…
