Louise E. Sinks - Credit Card Fraud: A Tidymodels Tutorial
…
I’m setting a global theme for my figures. I’m using cowplot to create some composite figures, and apparently you must choose a cowplot theme if you set a global theme. You can use a ggtheme on a graph by graph basis, but not globally.

#  setting global figure options

theme_set(theme_cowplot(12))

Loading the data. This is a local copy that is part of the workspace download from Datacamp.

#  Reading in the data
fraud <- read_csv('C:/Users/drsin/OneDrive/Documents/R Projects/lsinks.github.io/posts/2023-04-11-credit-card-fraud/datacamp_workspace/credit_card_fraud.csv', show_col_types = FALSE) 
fraud

# A tibble: 339,607 × 15
   trans_date_trans_time merchant        category    amt city  state   lat  long
   <dttm>                <chr>           <chr>     <dbl> <chr> <chr> <dbl> <dbl>
 1 2019-01-01 00:00:44   Heller, Gutman… grocery… 107.   Orie… WA     48.9 -118.
 2 2019-01-01 00:00:51   Lind-Buckridge  enterta… 220.   Mala… ID     42.2 -112.
 3 2019-01-01 00:07:27   Kiehn Inc       grocery…  96.3  Gren… CA     41.6 -123.
 4 2019-01-01 00:09:03   Beier-Hyatt     shoppin…   7.77 High… NM     32.9 -106.
 5 2019-01-01 00:21:32   Bruen-Yost      misc_pos   6.85 Free… WY     43.0 -111.
 6 2019-01-01 00:22:06   Kunze Inc       grocery…  90.2  Hono… HI     20.1 -155.
 7 2019-01-01 00:22:18   Nitzsche, Kess… shoppin…   4.02 Vale… NE     42.8 -101.
 8 2019-01-01 00:22:36   Kihn, Abernath… shoppin…   3.66 West… OR     43.8 -122.
 9 2019-01-01 00:31:51   Ledner-Pfanner… gas_tra… 102.   Thom… UT     39.0 -110.
10 2019-01-01 00:34:10   Stracke-Lemke   grocery…  83.1  Conw… WA     48.3 -122.
# ℹ 339,597 more rows
# ℹ 7 more variables: city_pop <dbl>, job <chr>, dob <date>, trans_num <chr>,
#   merch_lat <dbl>, merch_long <dbl>, is_fraud <dbl>
…
Each customer should be associated with only one lat/long.

Assume that a customer in this dataset can be uniquely identified by date of birth and job

A lat/long might be associated with two customers (e.g. a couple living together with separate accounts.

lat/ long should match the city/state info. I already used tidygeocoder to produce lat/long information for city/state pairs, so this should be quick.

I’m going to go through and check the assumptions.

Assume that a customer in this dataset can be uniquely identified by date of birth and job

fraud %>% group_by(dob, job, city) 

# A tibble: 339,607 × 15
# Groups:   dob, job, city [187]
   trans_date_trans_time merchant        category    amt city  state   lat  long
   <dttm>                <chr>           <chr>     <dbl> <chr> <chr> <dbl> <dbl>
 1 2019-01-01 00:00:44   Heller, Gutman… grocery… 107.   Orie… WA     48.9 -118.
 2 2019-01-01 00:00:51   Lind-Buckridge  enterta… 220.   Mala… ID     42.2 -112.
 3 2019-01-01 00:07:27   Kiehn Inc       grocery…  96.3  Gren… CA     41.6 -123.
 4 2019-01-01 00:09:03   Beier-Hyatt     shoppin…   7.77 High… NM     32.9 -106.
 5 2019-01-01 00:21:32   Bruen-Yost      misc_pos   6.85 Free… WY     43.0 -111.
 6 2019-01-01 00:22:06   Kunze Inc       grocery…  90.2  Hono… HI     20.1 -155.
 7 2019-01-01 00:22:18   Nitzsche, Kess… shoppin…   4.02 Vale… NE     42.8 -101.
 8 2019-01-01 00:22:36   Kihn, Abernath… shoppin…   3.66 West… OR     43.8 -122.
 9 2019-01-01 00:31:51   Ledner-Pfanner… gas_tra… 102.   Thom… UT     39.0 -110.
10 2019-01-01 00:34:10   Stracke-Lemke   grocery…  83.1  Conw… WA     48.3 -122.
# ℹ 339,597 more rows
# ℹ 7 more variables: city_pop <dbl>, job <chr>, dob <date>, trans_num <chr>,
#   merch_lat <dbl>, merch_long <dbl>, is_fraud <dbl>
…
