Louise E. Sinks - TidyTuesday Week 17: London Marathon
…
Just those first two, from the very first race. According to wikipedia, they crossed the finish line holding hands!

Anyone win more than once?

winners_tied %>%
  group_by(Name) %>%
  count(Name, sort = TRUE) %>%
  filter(n > 1)

# A tibble: 34 × 2
# Groups:   Name [34]
   Name                     n
   <chr>                <int>
 1 David Weir               8
 2 Tanni Grey-Thompson      6
 3 David Holding            4
 4 Eliud Kipchoge           4
 5 Francesca Porcellato     4
 6 Ingrid Kristiansen       4
 7 Tatyana McFadden         4
 8 António Pinto            3
 9 Dionicio Cerón           3
10 Heinz Frei               3
# ℹ 24 more rows
…
